[gd_scene load_steps=3 format=2]

[ext_resource path="res://font_putih.tres" type="DynamicFont" id=1]
[ext_resource path="res://Scripts/select_stage.gd" type="Script" id=2]

[node name="MarginContainer" type="MarginContainer"]
anchor_right = 1.0
anchor_bottom = 1.0
custom_constants/margin_right = 120
custom_constants/margin_top = 80
custom_constants/margin_left = 120
custom_constants/margin_bottom = 80

[node name="VBoxContainer" type="VBoxContainer" parent="."]
margin_left = 120.0
margin_top = 80.0
margin_right = 904.0
margin_bottom = 520.0
custom_constants/separation = 100

[node name="LinkButton" type="LinkButton" parent="VBoxContainer"]
margin_right = 784.0
margin_bottom = 86.0
custom_fonts/font = ExtResource( 1 )
custom_colors/font_color = Color( 1, 0, 0, 1 )
action_mode = 0
text = "Level 1"
script = ExtResource( 2 )
scene_to_load = "Level 1"

[node name="LinkButton2" type="LinkButton" parent="VBoxContainer"]
margin_top = 186.0
margin_right = 784.0
margin_bottom = 272.0
custom_fonts/font = ExtResource( 1 )
custom_colors/font_color = Color( 1, 0, 0, 1 )
action_mode = 0
text = "Level 2"
script = ExtResource( 2 )
scene_to_load = "Level 2"
[connection signal="pressed" from="VBoxContainer/LinkButton" to="VBoxContainer/LinkButton" method="_on_Select_Game_pressed"]
[connection signal="pressed" from="VBoxContainer/LinkButton2" to="VBoxContainer/LinkButton2" method="_on_Select_Game_pressed"]
